......................
----------------------------------------------------------------------
Ran 22 tests in 0.709s

OK
Name             Stmts   Miss Branch BrPart  Cover   Missing
------------------------------------------------------------
Collatz.py          42      0     14      0   100%
TestCollatz.py      92      0      0      0   100%
------------------------------------------------------------
TOTAL              134      0     14      0   100%
