1 10 20
100 200 125
201 210 89
900 1000 174
1 10 20
10 100 119
100 1000 179
1000 10000 262
10000 99999 351
1 99999 351
10 99999 351
100 99999 351
1000 99999 351
99998 99999 227
50 500 144
60 600 144
70 700 145
80 800 171
90 900 179
1111 2222 182
2222 3333 217
3333 4444 238
5555 6666 262
6666 7777 257
1234 2345 183
2345 3456 217
3456 4567 238
4567 5678 236
5678 6789 262
1 1111 179
2 2222 182
3 3333 217
4 4444 238
5 5555 238
135 1357 182
246 2468 209
357 3579 217
468 4680 238
579 5791 238
1212 2121 180
2323 3232 217
3434 4343 238
4545 5454 210
5656 6565 262
6767 7676 257
7878 8787 252
8989 9898 260
1 1212 182
2 1212 182
2 20 21
20 200 125
200 2000 182
2000 20000 279
2 20000 279
3 30 112
30 300 128
300 3000 217
3000 30000 308
3 30000 308
4 40 112
40 400 144
400 4000 238
4000 40000 324
4 40000 324
5 50 112
50 500 144
500 5000 238
5000 50000 324
5 50000 324
6 60 113
60 600 144
600 6000 238
6000 60000 340
6 60000 340
7 70 113
70 700 145
700 7000 262
7000 70000 340
7 70000 340
8 80 116
80 800 171
800 8000 262
8000 80000 351
8 80000 351
9 90 116
90 900 179
900 9000 262
9000 90000 351
9 90000 351
145 654 145
198 984 179
132 876 179
154 908 179
142 988 179
4987 9876 262
2598 8675 262
2513 9765 262
5461 7865 262
2564 8143 262
20198 98715 351
56174 76154 335
26351 98767 351
41536 77617 351
33154 54651 340
1 999999 525
998999 999999 396
100000 999999 525
900000 999999 507
876534 987876 507
123746 875687 525
138762 763876 509
221342 867536 525
111111 111112 116
111112 111113 111
111113 111114 111
111115 111116 155
