..............
----------------------------------------------------------------------
Ran 14 tests in 0.047s

OK
Name             Stmts   Miss Branch BrPart  Cover   Missing
------------------------------------------------------------
Collatz.py          37      0     18      0   100%
TestCollatz.py      65      0      0      0   100%
------------------------------------------------------------
TOTAL              102      0     18      0   100%
