....................
----------------------------------------------------------------------
Ran 20 tests in 0.297s

OK
Name             Stmts   Miss Branch BrPart  Cover   Missing
------------------------------------------------------------
Collatz.py          49      1     26      1    97%   115->116, 116
TestCollatz.py      81      0      0      0   100%
------------------------------------------------------------
TOTAL              130      1     26      1    99%
