....................
----------------------------------------------------------------------
Ran 20 tests in 0.912s

OK
Name             Stmts   Miss Branch BrPart  Cover   Missing
------------------------------------------------------------
Collatz.py          37      0     18      0   100%
TestCollatz.py      87      0      0      0   100%
------------------------------------------------------------
TOTAL              124      0     18      0   100%