...................
----------------------------------------------------------------------
Ran 19 tests in 0.461s

OK
Name             Stmts   Miss Branch BrPart  Cover   Missing
------------------------------------------------------------
Collatz.py          31      0     12      0   100%
TestCollatz.py      81      0      0      0   100%
------------------------------------------------------------
TOTAL              112      0     12      0   100%
