................
----------------------------------------------------------------------
Ran 16 tests in 9.267s

OK
Name             Stmts   Miss Branch BrPart  Cover   Missing
------------------------------------------------------------
Collatz.py          60      0     26      0   100%
TestCollatz.py      69      0      0      0   100%
------------------------------------------------------------
TOTAL              129      0     26      0   100%
