1 10 20
100 200 125
201 210 89
900 1000 174
50 70 113
500 300 144
1 1 1
40 90 116
670 900 179
589 3874 238
378 3429 217
8743 48989 324
7382 8090 252
3782 9594 262
673 8956 262
7 17 20
352 709 171
3526 70970 340
65 98 119
100 1000 179
10 100 119
20 200 125
30 300 128
40 400 144
50 500 144
60 600 144
70 700 145
80 800 171
90 900 179
200 2000 182
300 3000 217
400 4000 238
500 5000 238
600 6000 238
700 7000 262
800 8000 262
900 9000 262
1000 10000 262
100 200 125
200 300 128
400 500 142
600 700 145
800 900 179
1000 2000 182
3000 4000 238
5000 6000 236
7000 8000 252
9000 10000 260
10 20 21
20 30 112
30 40 107
40 50 110
50 60 113
60 70 108
70 80 116
80 90 111
90 100 119
10000 20000 279
20000 30000 308
30000 40000 324
40000 50000 314
50000 60000 340
70000 80000 351
90000 100000 333
100000 200000 383
200000 300000 443
300000 400000 441
400000 500000 449
500000 600000 470
600000 700000 509
700000 800000 504
800000 900000 525
900000 999999 507
110 120 114
120 130 122
130 140 91
140 150 117
150 160 86
160 170 112
170 180 125
180 190 107
190 200 120
500 510 111
510 520 124
520 530 124
530 540 124
540 550 137
550 560 137
560 570 106
570 580 119
580 590 119
590 600 119
1000 1100 169
1100 1200 182
1200 1300 177
1300 1400 177
1400 1500 172
1500 1600 167
1600 1700 180
1700 1800 180
1800 1900 175
2000 2100 157
2100 2200 170
2200 2300 183
2300 2400 183
2400 2500 209
