1 10 20
100 200 125
201 210 89
900 1000 174
10 1 20
200 100 125
3 20 21
40 50 110
60 70 108
15 36 112
5 13 20
7 18 21
9 100 119
2 100 119
20 10 21
200 100 125
101 110 114
102 111 114
103 112 114
104 113 114
105 114 114
106 115 114
107 116 114
108 117 114
109 118 114
31 41 110
32 42 110
33 43 110
34 44 110
35 45 110
36 46 110
37 47 110
38 48 110
27 27 112
1 1 1
50 60 113
51 61 113
52 62 113
53 63 113
54 64 113
55 65 113
56 66 108
57 67 108
58 68 108
59 69 108
60 70 108
61 71 108
62 72 108
63 73 116
64 74 116
65 66 28
67 78 116
201 210 89
202 211 89
203 2112 182
204 5123 238
205 215 102
206 216 115
384 487 142
2 5 8
3 7 17
4 9 20
13 20 21
270 280 92
270 281 92
270 282 92
1 12 20
1 13 20
1 14 20
1 15 20
1 16 20
1 17 20
1 18 21
1 19 21
1 20 21
1 21 21
12 12 10
89 101 119
90 144 122
101 117 114
9 10 20
11 12 15
13 14 18
15 16 18
17 18 21
19 20 21
21 22 16
23 24 16
25 26 24
27 28 112
29 30 19
31 32 107
32 33 27
33 34 27
34 35 14
36 37 22
38 39 35
40 41 110
42 31 110
43 44 30
45 46 17
47 48 105
